%YAML 1.1
%TAG !u! tag:unity3d.com,2011:
--- !u!114 &11400000
MonoBehaviour:
  m_ObjectHideFlags: 0
  m_CorrespondingSourceObject: {fileID: 0}
  m_PrefabInstance: {fileID: 0}
  m_PrefabAsset: {fileID: 0}
  m_GameObject: {fileID: 0}
  m_Enabled: 1
  m_EditorHideFlags: 0
  m_Script: {fileID: 11500000, guid: d06c883b559e1574c8f23424de9e78bf, type: 3}
  m_Name: TerrainGeneratorConfig
  m_EditorClassIdentifier: 
  Biomes:
  - Biome: {fileID: 11400000, guid: a288f808a46e72b4cb1492817b620c0c, type: 2}
    Weighting: 0.568
  - Biome: {fileID: 11400000, guid: ee1f03f87135386419071c71dc971ed8, type: 2}
    Weighting: 0.203
  - Biome: {fileID: 11400000, guid: 775b707f5c14f384cac19e887f10e440, type: 2}
    Weighting: 0.114
  - Biome: {fileID: 11400000, guid: fd8e6cfde41994d4c99a147eed3351b5, type: 2}
    Weighting: 0.911
  BiomeMapResolution: 128
  BiomeSeedPointDensity: 0.11
  InitialHeightModifier: {fileID: 423728572007388141, guid: ad093d399f480394bbf9ce7ed2382b4e,
    type: 3}
  HeightPostProcessModifier: {fileID: 5030553517272076439, guid: f4bd7f8aa566cea4a90e51e983eacc0a,
    type: 3}
  TexturePostProcessModifier: {fileID: 9164593260663924176, guid: ce1debbbddb790749bf0d4ff70de1a16,
    type: 3}
