%YAML 1.1
%TAG !u! tag:unity3d.com,2011:
--- !u!1 &7067419732609928923
GameObject:
  m_ObjectHideFlags: 0
  m_CorrespondingSourceObject: {fileID: 0}
  m_PrefabInstance: {fileID: 0}
  m_PrefabAsset: {fileID: 0}
  serializedVersion: 6
  m_Component:
  - component: {fileID: 2078605844813140842}
  - component: {fileID: -43142726397167380}
  m_Layer: 0
  m_Name: ObjectPlacer_Forest
  m_TagString: Untagged
  m_Icon: {fileID: 0}
  m_NavMeshLayer: 0
  m_StaticEditorFlags: 0
  m_IsActive: 1
--- !u!4 &2078605844813140842
Transform:
  m_ObjectHideFlags: 0
  m_CorrespondingSourceObject: {fileID: 0}
  m_PrefabInstance: {fileID: 0}
  m_PrefabAsset: {fileID: 0}
  m_GameObject: {fileID: 7067419732609928923}
  m_LocalRotation: {x: 0, y: 0, z: 0, w: 1}
  m_LocalPosition: {x: 0, y: 0, z: 0}
  m_LocalScale: {x: 1, y: 1, z: 1}
  m_Children: []
  m_Father: {fileID: 0}
  m_RootOrder: 0
  m_LocalEulerAnglesHint: {x: 0, y: 0, z: 0}
--- !u!114 &-43142726397167380
MonoBehaviour:
  m_ObjectHideFlags: 0
  m_CorrespondingSourceObject: {fileID: 0}
  m_PrefabInstance: {fileID: 0}
  m_PrefabAsset: {fileID: 0}
  m_GameObject: {fileID: 7067419732609928923}
  m_Enabled: 1
  m_EditorHideFlags: 0
  m_Script: {fileID: 11500000, guid: 8c6b54cc7c197d745a0f0b28dd1f33be, type: 3}
  m_Name: 
  m_EditorClassIdentifier: 
  Objects:
  - HasHeightLimits: 0
    MinHeightToSpawn: 0
    MaxHeightToSpawn: 0
    Weighting: 0.646
    Prefabs:
    - {fileID: 1369031296425274, guid: 22a3fd8d3e59a1149bdcd775c0e87241, type: 3}
    - {fileID: 1458573784885960, guid: 6910e2407cd484a42a0c2598114751a0, type: 3}
    - {fileID: 1612273161005096, guid: ae9772ea62bbc724eb9b8ef81109f733, type: 3}
  TargetDensity: 0.2
  MaxSpawnCount: 300
  MaxInvalidLocationSkips: 10
  MaxPositionJitter: 0.15
