%YAML 1.1
%TAG !u! tag:unity3d.com,2011:
--- !u!114 &11400000
MonoBehaviour:
  m_ObjectHideFlags: 0
  m_CorrespondingSourceObject: {fileID: 0}
  m_PrefabInstance: {fileID: 0}
  m_PrefabAsset: {fileID: 0}
  m_GameObject: {fileID: 0}
  m_Enabled: 1
  m_EditorHideFlags: 0
  m_Script: {fileID: 11500000, guid: fa290d70b51f9054584a91f1d2d8a4f4, type: 3}
  m_Name: Biome_Area2
  m_EditorClassIdentifier: 
  Name: Biome_Area_2
  MinIntensity: 0.5
  MaxIntensity: 1
  MinDecayRate: 0.192
  MaxDecayRate: 0.398
  HeightModifier: {fileID: 7990638804728101355, guid: 95707e9eec91a5d4b9314453dde58139,
    type: 3}
  Textures:
  - Hashcode: Aerial_Rocks_Texture
    DiffuseMap: {fileID: 2800000, guid: 9da2a434098ab71408b54d80e97913c7, type: 3}
    NormalMap: {fileID: 2800000, guid: afb61ffcf99f1024fa7f49c86a5a47e8, type: 3}
  TexturePainter: {fileID: 9164593260663924176, guid: 308b1438e52118d47a16acb7d751f803,
    type: 3}
  ObjectPlacer: {fileID: 7067419732609928923, guid: 39b685db813a06c4183cbf4373532dcf,
    type: 3}
